C:\Users\HPUSER\source\repos\EquiforestWebApp\EquiforestWebApp
--output-path=obj\Release\netcoreapp2.0\
--application-name=EquiforestWebApp
--content-root=C:\Users\HPUSER\source\repos\EquiforestWebApp\EquiforestWebApp
--file=C:\Users\HPUSER\source\repos\EquiforestWebApp\EquiforestWebApp\Views\Account\AccessDenied.cshtml
--file=C:\Users\HPUSER\source\repos\EquiforestWebApp\EquiforestWebApp\Views\Account\ConfirmEmail.cshtml
--file=C:\Users\HPUSER\source\repos\EquiforestWebApp\EquiforestWebApp\Views\Account\ExternalLogin.cshtml
--file=C:\Users\HPUSER\source\repos\EquiforestWebApp\EquiforestWebApp\Views\Account\ForgotPassword.cshtml
--file=C:\Users\HPUSER\source\repos\EquiforestWebApp\EquiforestWebApp\Views\Account\ForgotPasswordConfirmation.cshtml
--file=C:\Users\HPUSER\source\repos\EquiforestWebApp\EquiforestWebApp\Views\Account\Lockout.cshtml
--file=C:\Users\HPUSER\source\repos\EquiforestWebApp\EquiforestWebApp\Views\Account\Login.cshtml
--file=C:\Users\HPUSER\source\repos\EquiforestWebApp\EquiforestWebApp\Views\Account\LoginWith2fa.cshtml
--file=C:\Users\HPUSER\source\repos\EquiforestWebApp\EquiforestWebApp\Views\Account\LoginWithRecoveryCode.cshtml
--file=C:\Users\HPUSER\source\repos\EquiforestWebApp\EquiforestWebApp\Views\Account\Register.cshtml
--file=C:\Users\HPUSER\source\repos\EquiforestWebApp\EquiforestWebApp\Views\Account\ResetPassword.cshtml
--file=C:\Users\HPUSER\source\repos\EquiforestWebApp\EquiforestWebApp\Views\Account\ResetPasswordConfirmation.cshtml
--file=C:\Users\HPUSER\source\repos\EquiforestWebApp\EquiforestWebApp\Views\Account\SignedOut.cshtml
--file=C:\Users\HPUSER\source\repos\EquiforestWebApp\EquiforestWebApp\Views\Contenedores\Create.cshtml
--file=C:\Users\HPUSER\source\repos\EquiforestWebApp\EquiforestWebApp\Views\Contenedores\Delete.cshtml
--file=C:\Users\HPUSER\source\repos\EquiforestWebApp\EquiforestWebApp\Views\Contenedores\Details.cshtml
--file=C:\Users\HPUSER\source\repos\EquiforestWebApp\EquiforestWebApp\Views\Contenedores\Edit.cshtml
--file=C:\Users\HPUSER\source\repos\EquiforestWebApp\EquiforestWebApp\Views\Contenedores\Index.cshtml
--file=C:\Users\HPUSER\source\repos\EquiforestWebApp\EquiforestWebApp\Views\Facturas\Create.cshtml
--file=C:\Users\HPUSER\source\repos\EquiforestWebApp\EquiforestWebApp\Views\Facturas\Delete.cshtml
--file=C:\Users\HPUSER\source\repos\EquiforestWebApp\EquiforestWebApp\Views\Facturas\Details.cshtml
--file=C:\Users\HPUSER\source\repos\EquiforestWebApp\EquiforestWebApp\Views\Facturas\Edit.cshtml
--file=C:\Users\HPUSER\source\repos\EquiforestWebApp\EquiforestWebApp\Views\Facturas\Index.cshtml
--file=C:\Users\HPUSER\source\repos\EquiforestWebApp\EquiforestWebApp\Views\Facturas\PackingList.cshtml
--file=C:\Users\HPUSER\source\repos\EquiforestWebApp\EquiforestWebApp\Views\Home\About.cshtml
--file=C:\Users\HPUSER\source\repos\EquiforestWebApp\EquiforestWebApp\Views\Home\Contact.cshtml
--file=C:\Users\HPUSER\source\repos\EquiforestWebApp\EquiforestWebApp\Views\Home\Index.cshtml
--file=C:\Users\HPUSER\source\repos\EquiforestWebApp\EquiforestWebApp\Views\Home\ResumenComercial.cshtml
--file=C:\Users\HPUSER\source\repos\EquiforestWebApp\EquiforestWebApp\Views\Home\Resumencosecha.cshtml
--file=C:\Users\HPUSER\source\repos\EquiforestWebApp\EquiforestWebApp\Views\Home\UserRoles.cshtml
--file=C:\Users\HPUSER\source\repos\EquiforestWebApp\EquiforestWebApp\Views\Home\UsersManager.cshtml
--file=C:\Users\HPUSER\source\repos\EquiforestWebApp\EquiforestWebApp\Views\Home\_AddRole.cshtml
--file=C:\Users\HPUSER\source\repos\EquiforestWebApp\EquiforestWebApp\Views\Manage\ChangePassword.cshtml
--file=C:\Users\HPUSER\source\repos\EquiforestWebApp\EquiforestWebApp\Views\Manage\Disable2fa.cshtml
--file=C:\Users\HPUSER\source\repos\EquiforestWebApp\EquiforestWebApp\Views\Manage\EnableAuthenticator.cshtml
--file=C:\Users\HPUSER\source\repos\EquiforestWebApp\EquiforestWebApp\Views\Manage\ExternalLogins.cshtml
--file=C:\Users\HPUSER\source\repos\EquiforestWebApp\EquiforestWebApp\Views\Manage\GenerateRecoveryCodes.cshtml
--file=C:\Users\HPUSER\source\repos\EquiforestWebApp\EquiforestWebApp\Views\Manage\Index.cshtml
--file=C:\Users\HPUSER\source\repos\EquiforestWebApp\EquiforestWebApp\Views\Manage\ResetAuthenticator.cshtml
--file=C:\Users\HPUSER\source\repos\EquiforestWebApp\EquiforestWebApp\Views\Manage\SetPassword.cshtml
--file=C:\Users\HPUSER\source\repos\EquiforestWebApp\EquiforestWebApp\Views\Manage\ShowRecoveryCodes.cshtml
--file=C:\Users\HPUSER\source\repos\EquiforestWebApp\EquiforestWebApp\Views\Manage\TwoFactorAuthentication.cshtml
--file=C:\Users\HPUSER\source\repos\EquiforestWebApp\EquiforestWebApp\Views\Manage\_Layout.cshtml
--file=C:\Users\HPUSER\source\repos\EquiforestWebApp\EquiforestWebApp\Views\Manage\_ManageNav.cshtml
--file=C:\Users\HPUSER\source\repos\EquiforestWebApp\EquiforestWebApp\Views\Manage\_StatusMessage.cshtml
--file=C:\Users\HPUSER\source\repos\EquiforestWebApp\EquiforestWebApp\Views\Manage\_ViewImports.cshtml
--file=C:\Users\HPUSER\source\repos\EquiforestWebApp\EquiforestWebApp\Views\Precios\Create.cshtml
--file=C:\Users\HPUSER\source\repos\EquiforestWebApp\EquiforestWebApp\Views\Precios\Delete.cshtml
--file=C:\Users\HPUSER\source\repos\EquiforestWebApp\EquiforestWebApp\Views\Precios\Details.cshtml
--file=C:\Users\HPUSER\source\repos\EquiforestWebApp\EquiforestWebApp\Views\Precios\Edit.cshtml
--file=C:\Users\HPUSER\source\repos\EquiforestWebApp\EquiforestWebApp\Views\Precios\Index.cshtml
--file=C:\Users\HPUSER\source\repos\EquiforestWebApp\EquiforestWebApp\Views\Shared\Error.cshtml
--file=C:\Users\HPUSER\source\repos\EquiforestWebApp\EquiforestWebApp\Views\Shared\_Layout.cshtml
--file=C:\Users\HPUSER\source\repos\EquiforestWebApp\EquiforestWebApp\Views\Shared\_LoginPartial.cshtml
--file=C:\Users\HPUSER\source\repos\EquiforestWebApp\EquiforestWebApp\Views\Shared\_ValidationScriptsPartial.cshtml
--file=C:\Users\HPUSER\source\repos\EquiforestWebApp\EquiforestWebApp\Views\Trozas\Create.cshtml
--file=C:\Users\HPUSER\source\repos\EquiforestWebApp\EquiforestWebApp\Views\Trozas\Delete.cshtml
--file=C:\Users\HPUSER\source\repos\EquiforestWebApp\EquiforestWebApp\Views\Trozas\Details.cshtml
--file=C:\Users\HPUSER\source\repos\EquiforestWebApp\EquiforestWebApp\Views\Trozas\Edit.cshtml
--file=C:\Users\HPUSER\source\repos\EquiforestWebApp\EquiforestWebApp\Views\Trozas\Index.cshtml
--file=C:\Users\HPUSER\source\repos\EquiforestWebApp\EquiforestWebApp\Views\Trozas\_TrozasEdit.cshtml
--file=C:\Users\HPUSER\source\repos\EquiforestWebApp\EquiforestWebApp\Views\Viajes\Create.cshtml
--file=C:\Users\HPUSER\source\repos\EquiforestWebApp\EquiforestWebApp\Views\Viajes\Delete.cshtml
--file=C:\Users\HPUSER\source\repos\EquiforestWebApp\EquiforestWebApp\Views\Viajes\Details.cshtml
--file=C:\Users\HPUSER\source\repos\EquiforestWebApp\EquiforestWebApp\Views\Viajes\Edit.cshtml
--file=C:\Users\HPUSER\source\repos\EquiforestWebApp\EquiforestWebApp\Views\Viajes\Index.cshtml
--file=C:\Users\HPUSER\source\repos\EquiforestWebApp\EquiforestWebApp\Views\Viajes\Viaje.cshtml
--file=C:\Users\HPUSER\source\repos\EquiforestWebApp\EquiforestWebApp\Views\Viajes\_ViajesCreate.cshtml
--file=C:\Users\HPUSER\source\repos\EquiforestWebApp\EquiforestWebApp\Views\Viajes\_ViajesEdit.cshtml
--file=C:\Users\HPUSER\source\repos\EquiforestWebApp\EquiforestWebApp\Views\_ViewImports.cshtml
--file=C:\Users\HPUSER\source\repos\EquiforestWebApp\EquiforestWebApp\Views\_ViewStart.cshtml
